环境数据分析与机器学习 - 4 环境数据统计分析
…
data <- tibble(
  rn = paste("河流", 1:50),
  wq = sample(c("I类","II类","III类","IV类","V类","劣V类"),
              50, replace = TRUE),
  wt = sample(c("小型河流","中型河流","大型河流"),
              50, replace = TRUE)) %>% 
  mutate(wq = factor(wq,levels = c("I类","II类","III类",
                                   "IV类","V类","劣V类"),
                 ordered = TRUE),
         wt = factor(wt,levels = c("小型河流","中型河流",
                                   "大型河流"),
                 ordered = TRUE))
data

# A tibble: 50 × 3
   rn      wq    wt      
   <chr>   <ord> <ord>   
 1 河流 1  IV类  大型河流
 2 河流 2  III类 中型河流
 3 河流 3  劣V类 小型河流
 4 河流 4  III类 大型河流
 5 河流 5  IV类  中型河流
 6 河流 6  劣V类 中型河流
 7 河流 7  劣V类 大型河流
 8 河流 8  IV类  大型河流
 9 河流 9  III类 大型河流
10 河流 10 I类   小型河流
# ℹ 40 more rows
…
DV:  pm25 
Observations:  72 
D:  0.9992765 
MS total:  438 

            Df  Sum Sq      H p.value
city         5 17035.6 38.922 0.00000
season       3  5232.4 11.955 0.00754
city:season 15  2859.1  6.532 0.96935
Residuals   48  5948.3               

以上数据集中季节变量中的3个月份可视为三次重复。如果是非重复区组设计实验得到的数据，可用friedman.test()进行方差分析。

# A tibble: 24 × 3
# Groups:   season [4]
   season city   pm25
   <fct>  <fct> <dbl>
 1 春     北京   70.7
 2 春     重庆   45.7
 3 春     济南   77.3
 4 春     合肥   61  
 5 春     兰州   47  
 6 春     广州   32.7
 7 夏     北京   55.3
 8 夏     重庆   41.7
 9 夏     济南   68.3
10 夏     合肥   41.3
# ℹ 14 more rows
…
